{
  "id": 603,
  "page": 1,
  "total_pages": 2,
  "total_results": 3,
  "results": [
    {
      "id": "5a0806b8925141079b00002a",
      "author": "Gimly",
      "author_details": {
        "name": "Gimly",
        "username": "Gimly",
        "avatar_path": "/avatar.jpg",
        "rating": 8.0
      },
      "content": "A review of The Matrix.",
      "created_at": "2017-11-11T02:59:52.000Z",
      "updated_at": "2017-11-11T02:59:52.000Z",
      "url": "https://www.themoviedb.org/review/5a0806b8925141079b00002a"
    }
  ]
}
